<?xml version="1.0" encoding="UTF-16"?>
<!DOCTYPE svg PUBLIC "-//W3C//DTD SVG 1.1//EN" "http://www.w3.org/Graphics/SVG/1.1/DTD/svg11.dtd">
<!-- Creator: CorelDRAW X7 -->
<svg xmlns="http://www.w3.org/2000/svg" xml:space="preserve" width="2.53333in" height="0.333335in" version="1.1" style="shape-rendering:geometricPrecision; text-rendering:geometricPrecision; image-rendering:optimizeQuality; fill-rule:evenodd; clip-rule:evenodd"
viewBox="0 0 5142 677"
 xmlns:xlink="http://www.w3.org/1999/xlink">
 <defs>
  <style type="text/css">
   <![CDATA[
    .fil5 {fill:none}
    .fil2 {fill:#FEFEFE}
    .fil1 {fill:#FEFEFE}
    .fil0 {fill:#F58634}
    .fil6 {fill:#FEFEFE;fill-rule:nonzero}
    .fil4 {fill:#FEFEFE;fill-opacity:0.501961}
    .fil3 {fill:#FEFEFE;fill-opacity:0.749020}
   ]]>
  </style>
    <clipPath id="id0">
     <path d="M0 0l5142 0 0 677 -5142 0 0 -677z"/>
    </clipPath>
 </defs>
 <g id="Layer_x0020_1_0">
  <metadata id="CorelCorpID_0Corel-Layer"/>
  <g id="_999791936">
   <polygon class="fil0" points="0,0 5142,0 5142,677 0,677 "/>
   <g style="clip-path:url(#id0)">
    <g>
     <path id="1" class="fil1" d="M646 -303c355,118 546,501 428,855 -118,355 -501,546 -855,428 -355,-118 -546,-501 -428,-855 118,-355 501,-547 855,-428zm-135 367l41 -125 74 24 -42 125c188,51 170,260 34,282 161,102 36,354 -215,263l-41 122 -73 -25 40 -121 -55 -19 -41 122 -73 -25 41 -121 -145 -48 43 -79c48,24 76,26 84,1l112 -335c7,-33 -52,-50 -84,-51l27 -83 144 50 42 -125 73 24 -42 125 56 19zm22 427c9,-26 14,-94 -179,-143l-52 158c57,23 203,70 231,-15zm-106 -360l-47 141c234,93 274,-98 47,-141z"/>
     <g>
      <path class="fil2" d="M4689 468c15,0 30,-3 45,-3 6,15 12,30 21,42 9,9 21,18 36,24l-6 -126c-15,-6 -27,-9 -36,-15 -21,-9 -36,-24 -48,-39 -12,-18 -21,-36 -24,-60 -3,-24 0,-51 9,-75 12,-24 30,-45 54,-60 12,-6 24,-9 36,-15l-6 -75 36 -3 3 72c9,0 15,0 21,0 12,0 21,0 30,3l3 -75 36 0 -3 81c9,3 21,9 30,15 27,15 48,36 57,63 12,24 15,51 12,81 -18,3 -36,3 -54,6 0,-33 -9,-57 -27,-75 -6,-6 -12,-12 -21,-15l-6 156 6 3c15,3 27,9 33,12 24,9 39,24 48,39 6,15 9,33 6,51 -3,18 -9,36 -21,51 -15,12 -30,24 -48,33 -9,3 -18,6 -30,6l0 48 -36 0 3 -45 -3 0c-6,0 -12,0 -18,0l0 45 -33 0 -3 -48c-6,-3 -15,-6 -21,-6 -21,-9 -39,-21 -51,-36 -15,-18 -24,-36 -30,-60zm135 72c6,0 15,0 21,0l3 0 3 -117 -24 -6 -6 -3 3 126 0 0zm-12 -333l6 150 21 6 15 3 3 -159c-6,0 -15,0 -24,0 -6,0 -15,0 -21,0l0 0zm-30 138l-3 -129c-12,3 -18,9 -27,15 -15,15 -21,36 -18,57 0,18 9,30 21,42 6,6 15,12 27,15l0 0zm102 189l6 0c15,-6 24,-12 30,-21 9,-9 12,-18 15,-27 0,-12 -3,-21 -9,-30 -6,-9 -15,-15 -30,-21l-9 -3 -3 102 0 0z"/>
      <polygon class="fil3" points="4692,-687 4835,-687 4349,994 4206,994 "/>
      <polygon class="fil4" points="4592,-687 4636,-687 4150,994 4106,994 "/>
     </g>
    </g>
   </g>
   <polygon class="fil5" points="0,0 5142,0 5142,677 0,677 "/>
   <path class="fil6" d="M1414 268c-16,0 -29,6 -39,18 -9,13 -13,31 -13,53 0,47 17,70 52,70 15,0 33,-3 54,-11l0 38c-17,7 -37,10 -58,10 -30,0 -54,-9 -70,-27 -16,-19 -24,-46 -24,-80 0,-22 4,-41 12,-58 8,-16 19,-29 34,-37 15,-9 32,-13 52,-13 21,0 41,4 62,14l-15 36c-7,-3 -15,-6 -23,-9 -8,-3 -16,-4 -24,-4zm227 175l-15 -50 -77 0 -15 50 -48 0 74 -210 55 0 74 210 -48 0zm-26 -87c-14,-45 -22,-71 -23,-77 -2,-6 -4,-10 -4,-14 -3,12 -12,43 -27,91l54 0zm225 29c0,19 -7,34 -21,45 -14,11 -33,16 -57,16 -22,0 -42,-4 -59,-12l0 -42c14,7 26,11 36,14 9,2 18,4 27,4 9,0 17,-2 22,-6 5,-4 8,-9 8,-17 0,-4 -1,-7 -4,-11 -2,-3 -5,-6 -10,-9 -4,-3 -13,-8 -27,-14 -13,-6 -22,-12 -29,-17 -6,-6 -11,-13 -15,-20 -4,-7 -6,-16 -6,-26 0,-18 6,-33 19,-44 13,-10 30,-15 52,-15 11,0 22,1 31,3 10,3 21,7 32,11l-15 35c-11,-5 -20,-8 -28,-10 -7,-2 -14,-2 -21,-2 -9,0 -15,2 -20,5 -4,4 -6,10 -6,16 0,4 1,7 2,10 2,3 5,6 9,9 4,2 13,7 28,14 20,10 33,19 41,29 7,9 11,20 11,34zm210 58l-45 0 0 -90 -83 0 0 90 -44 0 0 -210 44 0 0 83 83 0 0 -83 45 0 0 210zm320 -105c0,35 -9,62 -26,80 -17,19 -42,28 -74,28 -32,0 -57,-9 -74,-28 -18,-18 -26,-45 -26,-80 0,-35 8,-62 26,-80 17,-19 42,-28 74,-28 32,0 57,9 74,28 17,19 26,45 26,80zm-154 0c0,24 5,41 14,53 9,12 22,18 40,18 35,0 53,-24 53,-71 0,-47 -18,-71 -53,-71 -18,0 -31,6 -40,18 -9,12 -14,30 -14,53zm242 -6l14 0c14,0 24,-2 31,-8 7,-5 10,-13 10,-23 0,-11 -3,-19 -8,-24 -6,-5 -15,-7 -27,-7l-20 0 0 62zm100 -33c0,23 -7,40 -21,52 -14,12 -34,18 -60,18l-19 0 0 74 -45 0 0 -210 67 0c26,0 45,6 58,17 14,11 20,27 20,49zm161 144l-121 0 0 -210 121 0 0 37 -77 0 0 46 72 0 0 37 -72 0 0 54 77 0 0 36zm88 -116l15 0c14,0 24,-3 31,-7 6,-5 10,-12 10,-22 0,-10 -4,-18 -11,-22 -6,-4 -17,-6 -31,-6l-14 0 0 57zm0 36l0 80 -44 0 0 -210 61 0c28,0 49,6 63,16 14,10 21,26 21,47 0,13 -4,24 -11,33 -6,10 -16,17 -28,23 31,47 52,78 61,91l-49 0 -50 -80 -24 0zm278 80l-15 -50 -76 0 -16 50 -48 0 75 -210 54 0 74 210 -48 0zm-25 -87c-15,-45 -22,-71 -24,-77 -2,-6 -3,-10 -4,-14 -3,12 -12,43 -27,91l55 0zm160 87l-44 0 0 -172 -57 0 0 -38 158 0 0 38 -57 0 0 172zm90 0l0 -210 44 0 0 210 -44 0zm288 -105c0,35 -9,62 -26,80 -17,19 -42,28 -74,28 -33,0 -57,-9 -74,-28 -18,-18 -26,-45 -26,-80 0,-35 8,-62 26,-80 17,-19 42,-28 74,-28 32,0 57,9 74,28 17,19 26,45 26,80zm-154 0c0,24 5,41 14,53 9,12 22,18 40,18 35,0 53,-24 53,-71 0,-47 -18,-71 -53,-71 -18,0 -31,6 -40,18 -9,12 -14,30 -14,53zm383 105l-56 0 -92 -158 -1 0c2,28 3,48 3,60l0 98 -40 0 0 -210 56 0 91 158 2 0c-2,-28 -3,-47 -3,-58l0 -100 40 0 0 210zm177 -58c0,19 -7,34 -20,45 -14,11 -33,16 -57,16 -23,0 -42,-4 -60,-12l0 -42c15,7 27,11 36,14 10,2 19,4 27,4 10,0 18,-2 23,-6 5,-4 8,-9 8,-17 0,-4 -2,-7 -4,-11 -2,-3 -6,-6 -10,-9 -4,-3 -14,-8 -27,-14 -13,-6 -23,-12 -29,-17 -7,-6 -12,-13 -15,-20 -4,-7 -6,-16 -6,-26 0,-18 6,-33 19,-44 12,-10 30,-15 52,-15 11,0 21,1 31,3 10,3 20,7 31,11l-14 35c-11,-5 -21,-8 -28,-10 -7,-2 -14,-2 -22,-2 -8,0 -14,2 -19,5 -4,4 -7,10 -7,16 0,4 1,7 3,10 2,3 5,6 9,9 4,2 13,7 28,14 20,10 33,19 40,29 8,9 11,20 11,34z"/>
  </g>
 </g>
</svg>
