<?xml version="1.0" encoding="UTF-16"?>
<!DOCTYPE svg PUBLIC "-//W3C//DTD SVG 1.1//EN" "http://www.w3.org/Graphics/SVG/1.1/DTD/svg11.dtd">
<!-- Creator: CorelDRAW X7 -->
<svg xmlns="http://www.w3.org/2000/svg" xml:space="preserve" width="2.53333in" height="0.333335in" version="1.1" style="shape-rendering:geometricPrecision; text-rendering:geometricPrecision; image-rendering:optimizeQuality; fill-rule:evenodd; clip-rule:evenodd"
viewBox="0 0 4929 649"
 xmlns:xlink="http://www.w3.org/1999/xlink">
 <defs>
  <style type="text/css">
   <![CDATA[
    .fil6 {fill:none}
    .fil0 {fill:#F58634}
    .fil2 {fill:white}
    .fil7 {fill:#FEFEFE;fill-rule:nonzero}
    .fil3 {fill:#FEFEFE;fill-rule:nonzero}
    .fil1 {fill:white;fill-rule:nonzero}
    .fil5 {fill:#FEFEFE;fill-opacity:0.501961}
    .fil4 {fill:#FEFEFE;fill-opacity:0.749020}
   ]]>
  </style>
    <clipPath id="id0">
     <path d="M0 0l4929 0 0 649 -4929 0 0 -649z"/>
    </clipPath>
 </defs>
 <g id="Layer_x0020_1_0">
  <metadata id="CorelCorpID_0Corel-Layer"/>
  <g id="_1199987856">
   <polygon class="fil0" points="0,0 4929,0 4929,649 0,649 "/>
   <g style="clip-path:url(#id0)">
    <g>
     <g>
      <path id="1" class="fil1" d="M23 124l34 198c340,-38 265,-291 -34,-198zm647 61l55 -36 -56 -88 98 -19 -13 -49c-5,1 -9,2 -15,4 -4,1 -9,3 -15,5 -5,1 -10,2 -16,4 -5,2 -10,3 -15,5l-35 10 6 -94 -73 0 5 93 -95 -29 -14 49 98 21 -58 86 54 37c7,-13 15,-26 23,-39 7,-14 15,-27 23,-40l43 80zm-256 -381c288,0 521,233 521,520 0,288 -233,520 -521,520 -28,0 -56,-2 -83,-6l-16 -99c358,-51 346,-432 88,-451 149,-113 37,-375 -220,-316l-18 -105c74,-40 159,-63 249,-63zm-194 1003c-27,-11 -52,-24 -76,-39l67 -11 9 50zm-215 -804c20,-25 42,-48 65,-69l10 56 -75 13zm375 484c-6,-38 -43,-122 -305,-57l38 222c83,-9 287,-47 267,-165z"/>
      <path class="fil2" d="M1063 324c0,354 -285,649 -649,649 -358,0 -648,-291 -648,-649 0,-358 290,-648 648,-648 364,0 649,295 649,648zm-649 -586c324,0 587,262 587,586 0,324 -263,587 -587,587 -323,0 -586,-263 -586,-587 0,-324 263,-586 586,-586z"/>
     </g>
     <g>
      <g>
       <polygon class="fil3" points="4569,51 4855,52 4857,53 4857,339 4854,341 4791,277 4615,453 4455,293 4631,117 4568,54 "/>
       <polygon class="fil3" points="4793,361 4631,522 4681,572 4685,576 4690,581 4687,588 4685,593 4684,596 4684,596 4682,602 4678,609 4671,609 4666,609 4378,608 4378,608 4375,608 4371,608 4366,605 4364,603 4364,602 4362,601 4360,597 4358,591 4357,587 4357,301 4357,301 4357,294 4357,287 4363,283 4369,281 4369,281 4372,280 4377,278 4384,275 4390,281 4393,284 4393,284 4457,348 4465,356 4457,365 4445,377 4437,384 4429,377 4397,345 4397,569 4621,569 4588,536 4588,536 4583,531 4574,522 4583,514 4588,508 4588,508 4764,333 4773,324 4781,333 4793,345 4801,353 "/>
      </g>
      <polygon class="fil4" points="4409,-588 4547,-588 4081,1024 3943,1024 "/>
      <polygon class="fil5" points="4313,-588 4355,-588 3889,1024 3847,1024 "/>
     </g>
    </g>
   </g>
   <polygon class="fil6" points="0,0 4929,0 4929,649 0,649 "/>
   <path class="fil7" d="M1383 256c-16,0 -28,6 -37,19 -9,12 -13,28 -13,50 0,45 17,67 50,67 15,0 32,-3 52,-10l0 36c-17,6 -35,10 -56,10 -29,0 -51,-9 -67,-27 -15,-18 -23,-43 -23,-76 0,-21 4,-40 11,-55 8,-16 19,-28 33,-36 15,-9 31,-13 50,-13 20,0 40,5 59,14l-13 35c-8,-4 -16,-7 -23,-10 -8,-2 -15,-4 -23,-4zm272 68c0,34 -9,59 -25,77 -17,18 -40,27 -71,27 -31,0 -55,-9 -71,-27 -17,-18 -25,-44 -25,-77 0,-34 8,-59 25,-77 16,-18 40,-26 71,-26 31,0 55,9 71,26 16,18 25,44 25,77zm-147 0c0,23 4,40 13,51 8,11 21,17 38,17 34,0 51,-23 51,-68 0,-45 -17,-68 -51,-68 -17,0 -30,6 -38,17 -9,12 -13,29 -13,51zm188 101l0 -201 43 0 0 201 -43 0zm272 0l-54 0 -88 -152 -1 0c2,27 3,46 3,57l0 95 -38 0 0 -201 53 0 88 151 1 0c-2,-27 -2,-45 -2,-56l0 -95 38 0 0 201zm307 -101c0,34 -8,59 -25,77 -16,18 -40,27 -71,27 -31,0 -55,-9 -71,-27 -17,-18 -25,-44 -25,-77 0,-34 8,-59 25,-77 17,-18 40,-26 71,-26 31,0 55,9 71,26 17,18 25,44 25,77zm-147 0c0,23 4,40 13,51 8,11 21,17 38,17 34,0 51,-23 51,-68 0,-45 -17,-68 -51,-68 -17,0 -30,6 -38,17 -9,12 -13,29 -13,51zm231 -6l14 0c13,0 23,-2 30,-7 6,-6 9,-13 9,-23 0,-10 -2,-17 -8,-22 -5,-5 -14,-7 -25,-7l-20 0 0 59zm97 -31c0,21 -7,38 -21,49 -13,12 -33,17 -58,17l-18 0 0 72 -43 0 0 -201 65 0c24,0 43,5 55,15 13,11 20,27 20,48zm153 138l-115 0 0 -201 115 0 0 35 -73 0 0 44 68 0 0 35 -68 0 0 52 73 0 0 35zm85 -112l14 0c13,0 23,-2 30,-7 6,-4 9,-11 9,-21 0,-9 -3,-16 -10,-20 -6,-4 -16,-6 -30,-6l-13 0 0 54zm0 35l0 77 -43 0 0 -201 59 0c27,0 48,5 61,15 13,10 19,25 19,45 0,12 -3,22 -9,32 -7,9 -16,16 -28,21 30,46 50,75 59,88l-47 0 -48 -77 -23 0zm267 77l-15 -48 -73 0 -15 48 -46 0 71 -202 52 0 72 202 -46 0zm-25 -84c-14,-43 -21,-68 -23,-73 -2,-6 -3,-11 -3,-14 -3,12 -12,41 -26,87l52 0zm154 84l-43 0 0 -166 -54 0 0 -35 152 0 0 35 -55 0 0 166zm86 0l0 -201 42 0 0 201 -42 0zm276 -101c0,34 -9,59 -25,77 -17,18 -40,27 -71,27 -31,0 -55,-9 -71,-27 -17,-18 -25,-44 -25,-77 0,-34 8,-59 25,-77 16,-18 40,-26 71,-26 31,0 55,9 71,26 16,18 25,44 25,77zm-147 0c0,23 4,40 13,51 8,11 21,17 38,17 34,0 51,-23 51,-68 0,-45 -17,-68 -51,-68 -17,0 -30,6 -38,17 -9,12 -13,29 -13,51zm367 101l-54 0 -88 -152 -1 0c2,27 2,46 2,57l0 95 -38 0 0 -201 54 0 88 151 1 0c-2,-27 -2,-45 -2,-56l0 -95 38 0 0 201zm169 -56c0,18 -6,33 -19,43 -13,11 -32,16 -55,16 -21,0 -40,-4 -57,-12l0 -40c14,6 25,10 35,13 9,2 18,4 25,4 10,0 17,-2 22,-6 5,-3 8,-9 8,-16 0,-4 -2,-7 -4,-10 -2,-3 -5,-6 -9,-9 -5,-3 -13,-8 -27,-14 -12,-6 -21,-11 -27,-16 -6,-6 -11,-12 -15,-19 -4,-7 -6,-15 -6,-25 0,-18 7,-32 19,-42 12,-10 28,-15 50,-15 10,0 20,1 30,4 9,2 19,6 29,10l-13 33c-11,-4 -20,-7 -27,-9 -7,-2 -14,-3 -21,-3 -8,0 -14,2 -18,6 -5,4 -7,9 -7,15 0,4 1,7 3,10 2,2 4,5 8,8 4,2 13,7 27,14 19,9 32,18 39,27 7,9 10,20 10,33z"/>
  </g>
 </g>
</svg>
