<?xml version="1.0" encoding="UTF-16"?>
<!DOCTYPE svg PUBLIC "-//W3C//DTD SVG 1.1//EN" "http://www.w3.org/Graphics/SVG/1.1/DTD/svg11.dtd">
<!-- Creator: CorelDRAW X7 -->
<svg xmlns="http://www.w3.org/2000/svg" xml:space="preserve" width="2.53333in" height="0.333335in" version="1.1" style="shape-rendering:geometricPrecision; text-rendering:geometricPrecision; image-rendering:optimizeQuality; fill-rule:evenodd; clip-rule:evenodd"
viewBox="0 0 4929 649"
 xmlns:xlink="http://www.w3.org/1999/xlink">
 <defs>
  <style type="text/css">
   <![CDATA[
    .fil5 {fill:none}
    .fil0 {fill:#F58634}
    .fil1 {fill:white}
    .fil6 {fill:#FEFEFE;fill-rule:nonzero}
    .fil2 {fill:#FEFEFE;fill-rule:nonzero}
    .fil4 {fill:#FEFEFE;fill-opacity:0.501961}
    .fil3 {fill:#FEFEFE;fill-opacity:0.749020}
   ]]>
  </style>
    <clipPath id="id0">
     <path d="M0 0l4929 0 0 649 -4929 0 0 -649z"/>
    </clipPath>
 </defs>
 <g id="Layer_x0020_1_0">
  <metadata id="CorelCorpID_0Corel-Layer"/>
  <g id="_1020548672">
   <polygon class="fil0" points="0,0 4929,0 4929,649 0,649 "/>
   <g style="clip-path:url(#id0)">
    <g>
     <g>
      <polygon id="1" class="fil1" points="790,473 1050,319 791,171 "/>
      <polygon class="fil1" points="-81,640 177,492 -81,341 "/>
      <polygon class="fil1" points="479,-329 222,-181 478,-31 "/>
      <polygon class="fil1" points="503,977 508,977 758,824 499,676 "/>
      <polygon class="fil1" points="500,-329 500,-30 761,-178 "/>
      <polygon class="fil1" points="789,137 1050,-9 793,-161 "/>
      <polygon class="fil1" points="806,151 1063,303 1063,8 "/>
      <path class="fil1" d="M209 137l258 -148c-85,-50 -169,-101 -254,-151l-4 299z"/>
      <polygon class="fil1" points="790,807 1046,658 791,506 "/>
      <polygon class="fil1" points="-65,654 190,807 190,509 "/>
      <polygon class="fil1" points="515,654 770,807 770,509 "/>
      <polygon class="fil1" points="-64,318 188,472 190,174 "/>
      <polygon class="fil1" points="-81,305 174,155 -81,6 "/>
      <polygon class="fil1" points="-62,-9 189,139 189,-161 "/>
      <polygon class="fil1" points="473,977 477,977 478,674 228,822 "/>
      <polygon class="fil1" points="808,494 1060,641 1060,343 "/>
      <polygon class="fil1" points="209,807 466,662 209,509 "/>
      <polygon class="fil1" points="518,-9 769,139 770,-161 "/>
     </g>
     <g>
      <g>
       <polygon class="fil2" points="4569,48 4855,50 4857,51 4857,337 4854,339 4791,275 4615,450 4455,291 4631,115 4568,52 "/>
       <polygon class="fil2" points="4793,358 4631,520 4681,569 4685,574 4690,579 4687,585 4685,591 4684,594 4684,594 4682,599 4678,607 4671,607 4666,607 4378,606 4378,606 4375,606 4371,606 4366,603 4364,600 4364,599 4362,598 4360,595 4358,589 4357,584 4357,298 4357,298 4357,292 4357,284 4363,281 4369,279 4369,279 4372,278 4377,276 4384,272 4390,279 4393,282 4393,282 4457,345 4465,354 4457,362 4445,374 4437,382 4429,374 4397,342 4397,566 4621,566 4588,534 4588,534 4583,529 4574,520 4583,511 4588,506 4588,506 4764,330 4773,322 4781,330 4793,342 4801,351 "/>
      </g>
      <polygon class="fil3" points="4409,-590 4547,-590 4081,1021 3943,1021 "/>
      <polygon class="fil4" points="4313,-590 4355,-590 3889,1021 3847,1021 "/>
     </g>
    </g>
   </g>
   <polygon class="fil5" points="0,0 4929,0 4929,649 0,649 "/>
   <path class="fil6" d="M1383 256c-16,0 -28,6 -37,19 -9,12 -13,28 -13,50 0,45 17,67 50,67 15,0 32,-3 52,-10l0 36c-17,6 -35,10 -56,10 -29,0 -51,-9 -67,-27 -15,-18 -23,-43 -23,-76 0,-21 4,-40 11,-55 8,-16 19,-28 33,-36 15,-9 31,-13 50,-13 20,0 40,5 59,14l-13 35c-8,-4 -16,-7 -23,-10 -8,-2 -15,-4 -23,-4zm272 68c0,34 -9,59 -25,77 -17,18 -40,27 -71,27 -31,0 -55,-9 -71,-27 -17,-18 -25,-44 -25,-77 0,-34 8,-59 25,-77 16,-18 40,-26 71,-26 31,0 55,9 71,26 16,18 25,44 25,77zm-147 0c0,23 4,40 13,51 8,11 21,17 38,17 34,0 51,-23 51,-68 0,-45 -17,-68 -51,-68 -17,0 -30,6 -38,17 -9,12 -13,29 -13,51zm188 101l0 -201 43 0 0 201 -43 0zm272 0l-54 0 -88 -152 -1 0c2,27 3,46 3,57l0 95 -38 0 0 -201 53 0 88 151 1 0c-2,-27 -2,-45 -2,-56l0 -95 38 0 0 201zm307 -101c0,34 -8,59 -25,77 -16,18 -40,27 -71,27 -31,0 -55,-9 -71,-27 -17,-18 -25,-44 -25,-77 0,-34 8,-59 25,-77 17,-18 40,-26 71,-26 31,0 55,9 71,26 17,18 25,44 25,77zm-147 0c0,23 4,40 13,51 8,11 21,17 38,17 34,0 51,-23 51,-68 0,-45 -17,-68 -51,-68 -17,0 -30,6 -38,17 -9,12 -13,29 -13,51zm231 -6l14 0c13,0 23,-2 30,-7 6,-6 9,-13 9,-23 0,-10 -2,-17 -8,-22 -5,-5 -14,-7 -25,-7l-20 0 0 59zm97 -31c0,21 -7,38 -21,49 -13,12 -33,17 -58,17l-18 0 0 72 -43 0 0 -201 65 0c24,0 43,5 55,15 13,11 20,27 20,48zm153 138l-115 0 0 -201 115 0 0 35 -73 0 0 44 68 0 0 35 -68 0 0 52 73 0 0 35zm85 -112l14 0c13,0 23,-2 30,-7 6,-4 9,-11 9,-21 0,-9 -3,-16 -10,-20 -6,-4 -16,-6 -30,-6l-13 0 0 54zm0 35l0 77 -43 0 0 -201 59 0c27,0 48,5 61,15 13,10 19,25 19,45 0,12 -3,22 -9,32 -7,9 -16,16 -28,21 30,46 50,75 59,88l-47 0 -48 -77 -23 0zm267 77l-15 -48 -73 0 -15 48 -46 0 71 -202 52 0 72 202 -46 0zm-25 -84c-14,-43 -21,-68 -23,-73 -2,-6 -3,-11 -3,-14 -3,12 -12,41 -26,87l52 0zm154 84l-43 0 0 -166 -54 0 0 -35 152 0 0 35 -55 0 0 166zm86 0l0 -201 42 0 0 201 -42 0zm276 -101c0,34 -9,59 -25,77 -17,18 -40,27 -71,27 -31,0 -55,-9 -71,-27 -17,-18 -25,-44 -25,-77 0,-34 8,-59 25,-77 16,-18 40,-26 71,-26 31,0 55,9 71,26 16,18 25,44 25,77zm-147 0c0,23 4,40 13,51 8,11 21,17 38,17 34,0 51,-23 51,-68 0,-45 -17,-68 -51,-68 -17,0 -30,6 -38,17 -9,12 -13,29 -13,51zm367 101l-54 0 -88 -152 -1 0c2,27 2,46 2,57l0 95 -38 0 0 -201 54 0 88 151 1 0c-2,-27 -2,-45 -2,-56l0 -95 38 0 0 201zm169 -56c0,18 -6,33 -19,43 -13,11 -32,16 -55,16 -21,0 -40,-4 -57,-12l0 -40c14,6 25,10 35,13 9,2 18,4 25,4 10,0 17,-2 22,-6 5,-3 8,-9 8,-16 0,-4 -2,-7 -4,-10 -2,-3 -5,-6 -9,-9 -5,-3 -13,-8 -27,-14 -12,-6 -21,-11 -27,-16 -6,-6 -11,-12 -15,-19 -4,-7 -6,-15 -6,-25 0,-18 7,-32 19,-42 12,-10 28,-15 50,-15 10,0 20,1 30,4 9,2 19,6 29,10l-13 33c-11,-4 -20,-7 -27,-9 -7,-2 -14,-3 -21,-3 -8,0 -14,2 -18,6 -5,4 -7,9 -7,15 0,4 1,7 3,10 2,2 4,5 8,8 4,2 13,7 27,14 19,9 32,18 39,27 7,9 10,20 10,33z"/>
  </g>
 </g>
</svg>
